aiodns==2.0.0 \
    --hash=sha256:815fdef4607474295d68da46978a54481dd1e7be153c7d60f9e72773cd38d77d \
    --hash=sha256:aaa5ac584f40fe778013df0aa6544bf157799bd3f608364b451840ed2c8688de
aiofiles==0.4.0 \
    --hash=sha256:021ea0ba314a86027c166ecc4b4c07f2d40fc0f4b3a950d1868a0f2571c2bbee \
    --hash=sha256:1e644c2573f953664368de28d2aa4c89dfd64550429d0c27c4680ccd3aa4985d
aiohttp==3.5.4 \
    --hash=sha256:00d198585474299c9c3b4f1d5de1a576cc230d562abc5e4a0e81d71a20a6ca55 \
    --hash=sha256:0155af66de8c21b8dba4992aaeeabf55503caefae00067a3b1139f86d0ec50ed \
    --hash=sha256:09654a9eca62d1bd6d64aa44db2498f60a5c1e0ac4750953fdd79d5c88955e10 \
    --hash=sha256:199f1d106e2b44b6dacdf6f9245493c7d716b01d0b7fbe1959318ba4dc64d1f5 \
    --hash=sha256:296f30dedc9f4b9e7a301e5cc963012264112d78a1d3094cd83ef148fdf33ca1 \
    --hash=sha256:368ed312550bd663ce84dc4b032a962fcb3c7cae099dbbd48663afc305e3b939 \
    --hash=sha256:40d7ea570b88db017c51392349cf99b7aefaaddd19d2c78368aeb0bddde9d390 \
    --hash=sha256:629102a193162e37102c50713e2e31dc9a2fe7ac5e481da83e5bb3c0cee700aa \
    --hash=sha256:6d5ec9b8948c3d957e75ea14d41e9330e1ac3fed24ec53766c780f82805140dc \
    --hash=sha256:87331d1d6810214085a50749160196391a712a13336cd02ce1c3ea3d05bcf8d5 \
    --hash=sha256:9a02a04bbe581c8605ac423ba3a74999ec9d8bce7ae37977a3d38680f5780b6d \
    --hash=sha256:9c4c83f4fa1938377da32bc2d59379025ceeee8e24b89f72fcbccd8ca22dc9bf \
    --hash=sha256:9cddaff94c0135ee627213ac6ca6d05724bfe6e7a356e5e09ec57bd3249510f6 \
    --hash=sha256:a25237abf327530d9561ef751eef9511ab56fd9431023ca6f4803f1994104d72 \
    --hash=sha256:a5cbd7157b0e383738b8e29d6e556fde8726823dae0e348952a61742b21aeb12 \
    --hash=sha256:a97a516e02b726e089cffcde2eea0d3258450389bbac48cbe89e0f0b6e7b0366 \
    --hash=sha256:acc89b29b5f4e2332d65cd1b7d10c609a75b88ef8925d487a611ca788432dfa4 \
    --hash=sha256:b05bd85cc99b06740aad3629c2585bda7b83bd86e080b44ba47faf905fdf1300 \
    --hash=sha256:c2bec436a2b5dafe5eaeb297c03711074d46b6eb236d002c13c42f25c4a8ce9d \
    --hash=sha256:cc619d974c8c11fe84527e4b5e1c07238799a8c29ea1c1285149170524ba9303 \
    --hash=sha256:d4392defd4648badaa42b3e101080ae3313e8f4787cb517efd3f5b8157eaefd6 \
    --hash=sha256:e1c3c582ee11af7f63a34a46f0448fca58e59889396ffdae1f482085061a2889
astroid==2.2.5 \
    --hash=sha256:6560e1e1749f68c64a4b5dee4e091fce798d2f0d84ebe638cf0e0585a343acf4 \
    --hash=sha256:b65db1bbaac9f9f4d190199bb8680af6f6f84fd3769a5ea883df8a91fe68b4c4 \
    # via pylint
async-timeout==3.0.1 \
    --hash=sha256:0c3c816a028d47f659d6ff5c745cb2acf1f966da1fe5c19c77a70282b25f4c5f \
    --hash=sha256:4291ca197d287d274d0b6cb5d6f8f8f82d434ed288f962539ff18cc9012f9ea3 \
    # via aiohttp
asynctest==0.13.0 \
    --hash=sha256:5da6118a7e6d6b54d83a8f7197769d046922a44d2a99c21382f0a6e4fadae676 \
    --hash=sha256:c27862842d15d83e6a34eb0b2866c323880eb3a75e4485b079ea11748fd77fac
atomicwrites==1.3.0 \
    --hash=sha256:03472c30eb2c5d1ba9227e4c2ca66ab8287fbfbbda3888aa93dc2e28fc6811b4 \
    --hash=sha256:75a9445bac02d8d058d5e1fe689654ba5a6556a1dfd8ce6ec55a0ed79866cfa6 \
    # via pytest
attrs==19.1.0 \
    --hash=sha256:69c0dbf2ed392de1cb5ec704444b08a5ef81680a61cb899dc08127123af36a79 \
    --hash=sha256:f0b870f674851ecbfbbbd364d6b5cbdff9dcedbc7f3f5e18a6891057f21fe399 \
    # via aiohttp, pytest
cchardet==2.1.4 \
    --hash=sha256:079aa02a14072874d943a671ba778a9def5b0e3cedc2ac9f59308526cfb31472 \
    --hash=sha256:3e048a21688dcb4c797f40c8deb3600887bcaf435620256fd8becd4252012750 \
    --hash=sha256:41fced7a6f05ef859fe3eac89fc2120aca3cbbfd2b6c803bed3ee4bf02956903 \
    --hash=sha256:440903d5dca3d326f4b841e7fa760b6af1be4f950ead1a6ff77b76eaa46f0cd3 \
    --hash=sha256:50170f346527c5df4d3cb94648ca187c666e61c0db6e510b984e867c44709d8b \
    --hash=sha256:6c55a6e7bc7337671c9f1ad90746c0efb2b2979ff4305c7ca1d7d381f05174c1 \
    --hash=sha256:7f581ea172b252034f745dfd49733966b73b73907bdef0b47ad5f2008b797d54 \
    --hash=sha256:80f7b087198827e60c81574c321b12f89188eae626ae1567d66808928be42f88 \
    --hash=sha256:8ba753ff73ca2f3554999a0e027eab9450f6ffdb7e92e1b4e13b52be89995349 \
    --hash=sha256:9ad8f61d6d1ca37bd4b954ad92d461ea4f58d0dc413b0790a5abed7c09e54996 \
    --hash=sha256:a35bd23cedbaa87cc9300af1dd10bb03fda41894045fbca7bfdf1d350b813f25 \
    --hash=sha256:a8feb9a7def2310e18c27e485a21a38669abe8c2e36b93c6ce1a1363495d4cdf \
    --hash=sha256:aa9dd4cee8a5210a6d0a7b263b98dc50637e00401fc4a5ad3ce2dbef54fdfa02 \
    --hash=sha256:ab9858a0673262e467619df91f425cfef0590dcf5deef5c0c7945e9dc4dbd7d8 \
    --hash=sha256:b09a488bbb35be95f82845e3c4312be9025e8377975b027eee67e0b39445e070 \
    --hash=sha256:b2893d558761b3534cddf5a49ba8d77df3d8f964d7b14680b925f4a85fc13476 \
    --hash=sha256:b5a8f9b229a30cd2432572d15e169483bc47c24418772ff58d0585050631c2fd \
    --hash=sha256:bded54eeccd5f810bc69e076b3d9a35819a92e5e0559ad274b9ae9061b1b881d \
    --hash=sha256:cbc206061e69561af6e4cba11f99abd928346c6b5bcdc83eb32ae40e9fc23a5f \
    --hash=sha256:cc9745e0400da4cfb49f075e7819f22473b66443f953427058fee2c7b9547cc0 \
    --hash=sha256:db30bf3825702c07fc55a290d41663fd8151f870642a15667bbabf81fff21e0b \
    --hash=sha256:eeeb1b95bb5851dda93ee522860a0e6066d47921cb1d540cb778346e37e5a524 \
    --hash=sha256:f1c3919fb71ac5da3aeee42c5b731c99dcd2beed71db7fdc28ca993c173f0402
cffi==1.12.3 \
    --hash=sha256:041c81822e9f84b1d9c401182e174996f0bae9991f33725d059b771744290774 \
    --hash=sha256:046ef9a22f5d3eed06334d01b1e836977eeef500d9b78e9ef693f9380ad0b83d \
    --hash=sha256:066bc4c7895c91812eff46f4b1c285220947d4aa46fa0a2651ff85f2afae9c90 \
    --hash=sha256:066c7ff148ae33040c01058662d6752fd73fbc8e64787229ea8498c7d7f4041b \
    --hash=sha256:2444d0c61f03dcd26dbf7600cf64354376ee579acad77aef459e34efcb438c63 \
    --hash=sha256:300832850b8f7967e278870c5d51e3819b9aad8f0a2c8dbe39ab11f119237f45 \
    --hash=sha256:34c77afe85b6b9e967bd8154e3855e847b70ca42043db6ad17f26899a3df1b25 \
    --hash=sha256:46de5fa00f7ac09f020729148ff632819649b3e05a007d286242c4882f7b1dc3 \
    --hash=sha256:4aa8ee7ba27c472d429b980c51e714a24f47ca296d53f4d7868075b175866f4b \
    --hash=sha256:4d0004eb4351e35ed950c14c11e734182591465a33e960a4ab5e8d4f04d72647 \
    --hash=sha256:4e3d3f31a1e202b0f5a35ba3bc4eb41e2fc2b11c1eff38b362de710bcffb5016 \
    --hash=sha256:50bec6d35e6b1aaeb17f7c4e2b9374ebf95a8975d57863546fa83e8d31bdb8c4 \
    --hash=sha256:55cad9a6df1e2a1d62063f79d0881a414a906a6962bc160ac968cc03ed3efcfb \
    --hash=sha256:5662ad4e4e84f1eaa8efce5da695c5d2e229c563f9d5ce5b0113f71321bcf753 \
    --hash=sha256:59b4dc008f98fc6ee2bb4fd7fc786a8d70000d058c2bbe2698275bc53a8d3fa7 \
    --hash=sha256:73e1ffefe05e4ccd7bcea61af76f36077b914f92b76f95ccf00b0c1b9186f3f9 \
    --hash=sha256:a1f0fd46eba2d71ce1589f7e50a9e2ffaeb739fb2c11e8192aa2b45d5f6cc41f \
    --hash=sha256:a2e85dc204556657661051ff4bab75a84e968669765c8a2cd425918699c3d0e8 \
    --hash=sha256:a5457d47dfff24882a21492e5815f891c0ca35fefae8aa742c6c263dac16ef1f \
    --hash=sha256:a8dccd61d52a8dae4a825cdbb7735da530179fea472903eb871a5513b5abbfdc \
    --hash=sha256:ae61af521ed676cf16ae94f30fe202781a38d7178b6b4ab622e4eec8cefaff42 \
    --hash=sha256:b012a5edb48288f77a63dba0840c92d0504aa215612da4541b7b42d849bc83a3 \
    --hash=sha256:d2c5cfa536227f57f97c92ac30c8109688ace8fa4ac086d19d0af47d134e2909 \
    --hash=sha256:d42b5796e20aacc9d15e66befb7a345454eef794fdb0737d1af593447c6c8f45 \
    --hash=sha256:dee54f5d30d775f525894d67b1495625dd9322945e7fee00731952e0368ff42d \
    --hash=sha256:e070535507bd6aa07124258171be2ee8dfc19119c28ca94c9dfb7efd23564512 \
    --hash=sha256:e1ff2748c84d97b065cc95429814cdba39bcbd77c9c85c89344b317dc0d9cbff \
    --hash=sha256:ed851c75d1e0e043cbf5ca9a8e1b13c4c90f3fbd863dacb01c0808e2b5204201 \
    # via pycares
chardet==3.0.4 \
    --hash=sha256:84ab92ed1c4d4f16916e05906b6b75a6c0fb5db821cc65e70cbd64a3e2a5eaae \
    --hash=sha256:fc323ffcaeaed0e0a02bf4d117757b98aed530d9ed4531e3e15460124c106691 \
    # via aiohttp
click==7.0 \
    --hash=sha256:2335065e6395b9e67ca716de5f7526736bfa6ceead690adf616d925bdc622b13 \
    --hash=sha256:5b94b49521f6456670fdb30cd82a4eca9412788a93fa6dd6df72c94d5a8ff2d7
commonmark==0.9.0 \
    --hash=sha256:14c3df31e8c9c463377e287b2a1eefaa6019ab97b22dad36e2f32be59d61d68d \
    --hash=sha256:867fc5db078ede373ab811e16b6789e9d033b15ccd7296f370ca52d1ee792ce0
coverage==4.5.3 \
    --hash=sha256:3684fabf6b87a369017756b551cef29e505cb155ddb892a7a29277b978da88b9 \
    --hash=sha256:39e088da9b284f1bd17c750ac672103779f7954ce6125fd4382134ac8d152d74 \
    --hash=sha256:3c205bc11cc4fcc57b761c2da73b9b72a59f8d5ca89979afb0c1c6f9e53c7390 \
    --hash=sha256:465ce53a8c0f3a7950dfb836438442f833cf6663d407f37d8c52fe7b6e56d7e8 \
    --hash=sha256:48020e343fc40f72a442c8a1334284620f81295256a6b6ca6d8aa1350c763bbe \
    --hash=sha256:5296fc86ab612ec12394565c500b412a43b328b3907c0d14358950d06fd83baf \
    --hash=sha256:5f61bed2f7d9b6a9ab935150a6b23d7f84b8055524e7be7715b6513f3328138e \
    --hash=sha256:68a43a9f9f83693ce0414d17e019daee7ab3f7113a70c79a3dd4c2f704e4d741 \
    --hash=sha256:6b8033d47fe22506856fe450470ccb1d8ba1ffb8463494a15cfc96392a288c09 \
    --hash=sha256:7ad7536066b28863e5835e8cfeaa794b7fe352d99a8cded9f43d1161be8e9fbd \
    --hash=sha256:7bacb89ccf4bedb30b277e96e4cc68cd1369ca6841bde7b005191b54d3dd1034 \
    --hash=sha256:839dc7c36501254e14331bcb98b27002aa415e4af7ea039d9009409b9d2d5420 \
    --hash=sha256:8f9a95b66969cdea53ec992ecea5406c5bd99c9221f539bca1e8406b200ae98c \
    --hash=sha256:932c03d2d565f75961ba1d3cec41ddde00e162c5b46d03f7423edcb807734eab \
    --hash=sha256:988529edadc49039d205e0aa6ce049c5ccda4acb2d6c3c5c550c17e8c02c05ba \
    --hash=sha256:998d7e73548fe395eeb294495a04d38942edb66d1fa61eb70418871bc621227e \
    --hash=sha256:9de60893fb447d1e797f6bf08fdf0dbcda0c1e34c1b06c92bd3a363c0ea8c609 \
    --hash=sha256:9e80d45d0c7fcee54e22771db7f1b0b126fb4a6c0a2e5afa72f66827207ff2f2 \
    --hash=sha256:a545a3dfe5082dc8e8c3eb7f8a2cf4f2870902ff1860bd99b6198cfd1f9d1f49 \
    --hash=sha256:a5d8f29e5ec661143621a8f4de51adfb300d7a476224156a39a392254f70687b \
    --hash=sha256:aca06bfba4759bbdb09bf52ebb15ae20268ee1f6747417837926fae990ebc41d \
    --hash=sha256:bb23b7a6fd666e551a3094ab896a57809e010059540ad20acbeec03a154224ce \
    --hash=sha256:bfd1d0ae7e292105f29d7deaa9d8f2916ed8553ab9d5f39ec65bcf5deadff3f9 \
    --hash=sha256:c62ca0a38958f541a73cf86acdab020c2091631c137bd359c4f5bddde7b75fd4 \
    --hash=sha256:c709d8bda72cf4cd348ccec2a4881f2c5848fd72903c185f363d361b2737f773 \
    --hash=sha256:c968a6aa7e0b56ecbd28531ddf439c2ec103610d3e2bf3b75b813304f8cb7723 \
    --hash=sha256:df785d8cb80539d0b55fd47183264b7002077859028dfe3070cf6359bf8b2d9c \
    --hash=sha256:f406628ca51e0ae90ae76ea8398677a921b36f0bd71aab2099dfed08abd0322f \
    --hash=sha256:f46087bbd95ebae244a0eda01a618aff11ec7a069b15a3ef8f6b520db523dcf1 \
    --hash=sha256:f8019c5279eb32360ca03e9fac40a12667715546eed5c5eb59eb381f2f501260 \
    --hash=sha256:fc5f4d209733750afd2714e9109816a29500718b32dd9a5db01c0cb3a019b96a \
    # via pytest-cov
dacite==1.0.2 \
    --hash=sha256:c26773fe3a5a3d127d6d35e3abb2fbea0461fffc914b51357bf0e218387e55df \
    --hash=sha256:dbc3e2ee755a06054366053bf67aaa495d6acd2306e264c4641865f99043a70c
entrypoints==0.3 \
    --hash=sha256:589f874b313739ad35be6e0cd7efde2a4e9b6fea91edcc34e58ecbb8dbe56d19 \
    --hash=sha256:c70dd71abe5a8c85e55e12c19bd91ccfeec11a6e99044204511f9ed547d48451 \
    # via flake8
flake8==3.7.8 \
    --hash=sha256:19241c1cbc971b9962473e4438a2ca19749a7dd002dd1a946eaba171b4114548 \
    --hash=sha256:8e9dfa3cecb2400b3738a42c54c3043e821682b9c840b0448c0503f781130696 \
    # via pytest-flake8
future==0.17.1 \
    --hash=sha256:67045236dcfd6816dc439556d009594abf643e5eb48992e36beac09c2ca659b8 \
    # via commonmark
idna==2.8 \
    --hash=sha256:c357b3f628cf53ae2c4c05627ecc484553142ca23264e593d327bcde5e9c3407 \
    --hash=sha256:ea8b7f6188e6fa117537c3df7da9fc686d485087abf6ac197f9c46432f7e4a3c \
    # via yarl
importlib-metadata==0.18 \
    --hash=sha256:6dfd58dfe281e8d240937776065dd3624ad5469c835248219bd16cf2e12dbeb7 \
    --hash=sha256:cb6ee23b46173539939964df59d3d72c3e0c1b5d54b84f1d8a7e912fe43612db \
    # via pluggy, pytest
isort==4.3.21 \
    --hash=sha256:54da7e92468955c4fceacd0c86bd0ec997b0e1ee80d97f67c35a78b719dccab1 \
    --hash=sha256:6e811fcb295968434526407adb8796944f1988c5b65e8139058f2014cbe100fd \
    # via pylint
lazy-object-proxy==1.4.1 \
    --hash=sha256:159a745e61422217881c4de71f9eafd9d703b93af95618635849fe469a283661 \
    --hash=sha256:23f63c0821cc96a23332e45dfaa83266feff8adc72b9bcaef86c202af765244f \
    --hash=sha256:3b11be575475db2e8a6e11215f5aa95b9ec14de658628776e10d96fa0b4dac13 \
    --hash=sha256:3f447aff8bc61ca8b42b73304f6a44fa0d915487de144652816f950a3f1ab821 \
    --hash=sha256:4ba73f6089cd9b9478bc0a4fa807b47dbdb8fad1d8f31a0f0a5dbf26a4527a71 \
    --hash=sha256:4f53eadd9932055eac465bd3ca1bd610e4d7141e1278012bd1f28646aebc1d0e \
    --hash=sha256:64483bd7154580158ea90de5b8e5e6fc29a16a9b4db24f10193f0c1ae3f9d1ea \
    --hash=sha256:6f72d42b0d04bfee2397aa1862262654b56922c20a9bb66bb76b6f0e5e4f9229 \
    --hash=sha256:7c7f1ec07b227bdc561299fa2328e85000f90179a2f44ea30579d38e037cb3d4 \
    --hash=sha256:7c8b1ba1e15c10b13cad4171cfa77f5bb5ec2580abc5a353907780805ebe158e \
    --hash=sha256:8559b94b823f85342e10d3d9ca4ba5478168e1ac5658a8a2f18c991ba9c52c20 \
    --hash=sha256:a262c7dfb046f00e12a2bdd1bafaed2408114a89ac414b0af8755c696eb3fc16 \
    --hash=sha256:acce4e3267610c4fdb6632b3886fe3f2f7dd641158a843cf6b6a68e4ce81477b \
    --hash=sha256:be089bb6b83fac7f29d357b2dc4cf2b8eb8d98fe9d9ff89f9ea6012970a853c7 \
    --hash=sha256:bfab710d859c779f273cc48fb86af38d6e9210f38287df0069a63e40b45a2f5c \
    --hash=sha256:c10d29019927301d524a22ced72706380de7cfc50f767217485a912b4c8bd82a \
    --hash=sha256:dd6e2b598849b3d7aee2295ac765a578879830fb8966f70be8cd472e6069932e \
    --hash=sha256:e408f1eacc0a68fed0c08da45f31d0ebb38079f043328dce69ff133b95c29dc1 \
    # via astroid
mccabe==0.6.1 \
    --hash=sha256:ab8a6258860da4b6677da4bd2fe5dc2c659cff31b3ee4f7f5d64e79735b80d42 \
    --hash=sha256:dd8d182285a0fe56bace7f45b5e7d1a6ebcbf524e8f3bd87eb0f125271b8831f \
    # via flake8, pylint
mock==3.0.5 \
    --hash=sha256:83657d894c90d5681d62155c82bda9c1187827525880eda8ff5df4ec813437c3 \
    --hash=sha256:d157e52d4e5b938c550f39eb2fd15610db062441a9c2747d3dbfa9298211d0f8
more-itertools==7.1.0 \
    --hash=sha256:3ad685ff8512bf6dc5a8b82ebf73543999b657eded8c11803d9ba6b648986f4d \
    --hash=sha256:8bb43d1f51ecef60d81854af61a3a880555a14643691cc4b64a6ee269c78f09a \
    # via pytest
multidict==4.5.2 \
    --hash=sha256:024b8129695a952ebd93373e45b5d341dbb87c17ce49637b34000093f243dd4f \
    --hash=sha256:041e9442b11409be5e4fc8b6a97e4bcead758ab1e11768d1e69160bdde18acc3 \
    --hash=sha256:045b4dd0e5f6121e6f314d81759abd2c257db4634260abcfe0d3f7083c4908ef \
    --hash=sha256:047c0a04e382ef8bd74b0de01407e8d8632d7d1b4db6f2561106af812a68741b \
    --hash=sha256:068167c2d7bbeebd359665ac4fff756be5ffac9cda02375b5c5a7c4777038e73 \
    --hash=sha256:148ff60e0fffa2f5fad2eb25aae7bef23d8f3b8bdaf947a65cdbe84a978092bc \
    --hash=sha256:1d1c77013a259971a72ddaa83b9f42c80a93ff12df6a4723be99d858fa30bee3 \
    --hash=sha256:1d48bc124a6b7a55006d97917f695effa9725d05abe8ee78fd60d6588b8344cd \
    --hash=sha256:31dfa2fc323097f8ad7acd41aa38d7c614dd1960ac6681745b6da124093dc351 \
    --hash=sha256:34f82db7f80c49f38b032c5abb605c458bac997a6c3142e0d6c130be6fb2b941 \
    --hash=sha256:3d5dd8e5998fb4ace04789d1d008e2bb532de501218519d70bb672c4c5a2fc5d \
    --hash=sha256:4a6ae52bd3ee41ee0f3acf4c60ceb3f44e0e3bc52ab7da1c2b2aa6703363a3d1 \
    --hash=sha256:4b02a3b2a2f01d0490dd39321c74273fed0568568ea0e7ea23e02bd1fb10a10b \
    --hash=sha256:4b843f8e1dd6a3195679d9838eb4670222e8b8d01bc36c9894d6c3538316fa0a \
    --hash=sha256:5de53a28f40ef3c4fd57aeab6b590c2c663de87a5af76136ced519923d3efbb3 \
    --hash=sha256:61b2b33ede821b94fa99ce0b09c9ece049c7067a33b279f343adfe35108a4ea7 \
    --hash=sha256:6a3a9b0f45fd75dc05d8e93dc21b18fc1670135ec9544d1ad4acbcf6b86781d0 \
    --hash=sha256:76ad8e4c69dadbb31bad17c16baee61c0d1a4a73bed2590b741b2e1a46d3edd0 \
    --hash=sha256:7ba19b777dc00194d1b473180d4ca89a054dd18de27d0ee2e42a103ec9b7d014 \
    --hash=sha256:7c1b7eab7a49aa96f3db1f716f0113a8a2e93c7375dd3d5d21c4941f1405c9c5 \
    --hash=sha256:7fc0eee3046041387cbace9314926aa48b681202f8897f8bff3809967a049036 \
    --hash=sha256:8ccd1c5fff1aa1427100ce188557fc31f1e0a383ad8ec42c559aabd4ff08802d \
    --hash=sha256:8e08dd76de80539d613654915a2f5196dbccc67448df291e69a88712ea21e24a \
    --hash=sha256:c18498c50c59263841862ea0501da9f2b3659c00db54abfbf823a80787fde8ce \
    --hash=sha256:c49db89d602c24928e68c0d510f4fcf8989d77defd01c973d6cbe27e684833b1 \
    --hash=sha256:ce20044d0317649ddbb4e54dab3c1bcc7483c78c27d3f58ab3d0c7e6bc60d26a \
    --hash=sha256:d1071414dd06ca2eafa90c85a079169bfeb0e5f57fd0b45d44c092546fcd6fd9 \
    --hash=sha256:d3be11ac43ab1a3e979dac80843b42226d5d3cccd3986f2e03152720a4297cd7 \
    --hash=sha256:db603a1c235d110c860d5f39988ebc8218ee028f07a7cbc056ba6424372ca31b \
    # via aiohttp, yarl
mypy-extensions==0.4.1 \
    --hash=sha256:37e0e956f41369209a3d5f34580150bcacfabaa57b33a15c0b25f4b5725e0812 \
    --hash=sha256:b16cabe759f55e3409a7d231ebd2841378fb0c27a5d1994719e340e4f429ac3e \
    # via mypy
mypy==0.711 \
    --hash=sha256:12d18bd7fc642c5d54b1bb62dde813a7e2ab79b32ee11ff206ac387c68fc2ad4 \
    --hash=sha256:23e24bc1683a36f39dee67d8ac74ea414654642eee26d420bada95b8ee8c9095 \
    --hash=sha256:2b38e64c52a8968df4ebcae0ddba4a54eb94d184695dd4e54e14509a9389b78c \
    --hash=sha256:3d4f551466a76e278187ec3a5b26cfb50f72f6760b749aa00ac69a6f9c99898d \
    --hash=sha256:53d5dacb8d844e50be698830509aa592b093547e7ab90aee63eb23db61109007 \
    --hash=sha256:56f981d246010ba21cac6b2455eaecfaf68fc8a5663d865b26c8e579c36f751d \
    --hash=sha256:8c57f6f59f1e8479d9fc6e1bf034353e54626ed64e32394c613afc493a441dc1 \
    --hash=sha256:bbed4a593d87476b592d52867ef86da2155ccd0becf0c4c02e6567d842e43368 \
    --hash=sha256:d6ff850e2ba18b2db7704897c8f2f1384478e3b75ad292ec06196bf7794f3a40 \
    --hash=sha256:e13b1bb8785d7f785e0b88873f1c21cda58ceba9ce1153b58cbfa24b09a111d5 \
    --hash=sha256:e2b9ee6f648ce72d6741925a47c88c2391168ef973b6f74f17969450c5b1ffdd \
    # via pytest-mypy
packaging==19.0 \
    --hash=sha256:0c98a5d0be38ed775798ece1b9727178c4469d9c3b4ada66e8e6b7849f8732af \
    --hash=sha256:9e1cbf8c12b1f1ce0bb5344b8d7ecf66a6f8a6e91bcb0c84593ed6d3ab5c4ab3 \
    # via pytest
pendulum==2.0.5 \
    --hash=sha256:1cde6e3c6310fb882c98f373795f807cb2bd6af01f34d2857e6e283b5ee91e09 \
    --hash=sha256:485aef2089defee88607d37d5bc238934d0b90993d7bf9ceb36e481af41e9c66 \
    --hash=sha256:57801754e05f30e8a7e4d24734c9fad82c6c3ec489151555f0fc66bb32ba6d6d \
    --hash=sha256:7ee344bc87cb425b04717b90d14ffde14c1dd64eaa73060b3772edcf57f3e866 \
    --hash=sha256:c460f4d8dc41ec3c4377ac1807678cd72fe5e973cc2943c104ffdeaac32dacb7 \
    --hash=sha256:d3078e007315a959989c41cee5cfd63cfeeca21dd3d8295f4bc24199489e9b6c
pluggy==0.12.0 \
    --hash=sha256:0825a152ac059776623854c1543d65a4ad408eb3d33ee114dff91e57ec6ae6fc \
    --hash=sha256:b9817417e95936bf75d85d3f8767f7df6cdde751fc40aed3bb3074cbcb77757c \
    # via pytest
py==1.8.0 \
    --hash=sha256:64f65755aee5b381cea27766a3a147c3f15b9b6b9ac88676de66ba2ae36793fa \
    --hash=sha256:dc639b046a6e2cff5bbe40194ad65936d6ba360b52b3c3fe1d08a82dd50b5e53 \
    # via pytest
pycares==3.0.0 \
    --hash=sha256:2ca080db265ea238dc45f997f94effb62b979a617569889e265c26a839ed6305 \
    --hash=sha256:6f79c6afb6ce603009db2042fddc2e348ad093ece9784cbe2daa809499871a23 \
    --hash=sha256:70918d06eb0603016d37092a5f2c0228509eb4e6c5a3faacb4184f6ab7be7650 \
    --hash=sha256:755187d28d24a9ea63aa2b4c0638be31d65fbf7f0ce16d41261b9f8cb55a1b99 \
    --hash=sha256:7baa4b1f2146eb8423ff8303ebde3a20fb444a60db761fba0430d104fe35ddbf \
    --hash=sha256:90b27d4df86395f465a171386bc341098d6d47b65944df46518814ae298f6cc6 \
    --hash=sha256:9e090dd6b2afa65cb51c133883b2bf2240fd0f717b130b0048714b33fb0f47ce \
    --hash=sha256:a11b7d63c3718775f6e805d6464cb10943780395ab042c7e5a0a7a9f612735dd \
    --hash=sha256:b253f5dcaa0ac7076b79388a3ac80dd8f3bd979108f813baade40d3a9b8bf0bd \
    --hash=sha256:c7f4f65e44ba35e35ad3febc844270665bba21cfb0fb7d749434e705b556e087 \
    --hash=sha256:cdb342e6a254f035bd976d95807a2184038fc088d957a5104dcaab8be602c093 \
    --hash=sha256:cf08e164f8bfb83b9fe633feb56f2754fae6baefcea663593794fa0518f8f98c \
    --hash=sha256:df9bc694cf03673878ea8ce674082c5acd134991d64d6c306d4bd61c0c1df98f \
    # via aiodns
pycodestyle==2.5.0 \
    --hash=sha256:95a2219d12372f05704562a14ec30bc76b05a5b297b21a5dfe3f6fac3491ae56 \
    --hash=sha256:e40a936c9a450ad81df37f549d676d127b1b66000a6c500caa2b085bc0ca976c \
    # via flake8
pycparser==2.19 \
    --hash=sha256:a988718abfad80b6b157acce7bf130a30876d27603738ac39f140993246b25b3 \
    # via cffi
pyflakes==2.1.1 \
    --hash=sha256:17dbeb2e3f4d772725c777fabc446d5634d1038f234e77343108ce445ea69ce0 \
    --hash=sha256:d976835886f8c5b31d47970ed689944a0262b5f3afa00a5a7b4dc81e5449f8a2 \
    # via flake8
pylint==2.3.1 \
    --hash=sha256:5d77031694a5fb97ea95e828c8d10fc770a1df6eb3906067aaed42201a8a6a09 \
    --hash=sha256:723e3db49555abaf9bf79dc474c6b9e2935ad82230b10c1138a71ea41ac0fff1 \
    # via pytest-pylint
pyparsing==2.4.0 \
    --hash=sha256:1873c03321fc118f4e9746baf201ff990ceb915f433f23b395f5580d1840cb2a \
    --hash=sha256:9b6323ef4ab914af344ba97510e966d64ba91055d6b9afa6b30799340e89cc03 \
    # via packaging
pytest-asyncio==0.10.0 \
    --hash=sha256:9fac5100fd716cbecf6ef89233e8590a4ad61d729d1732e0a96b84182df1daaf \
    --hash=sha256:d734718e25cfc32d2bf78d346e99d33724deeba774cc4afdf491530c6184b63b
pytest-cov==2.7.1 \
    --hash=sha256:2b097cde81a302e1047331b48cadacf23577e431b61e9c6f49a1170bbe3d3da6 \
    --hash=sha256:e00ea4fdde970725482f1f35630d12f074e121a23801aabf2ae154ec6bdd343a
pytest-flake8==1.0.4 \
    --hash=sha256:4d225c13e787471502ff94409dcf6f7927049b2ec251c63b764a4b17447b60c0 \
    --hash=sha256:d7e2b6b274a255b7ae35e9224c85294b471a83b76ecb6bd53c337ae977a499af
pytest-mock==1.10.4 \
    --hash=sha256:43ce4e9dd5074993e7c021bb1c22cbb5363e612a2b5a76bc6d956775b10758b7 \
    --hash=sha256:5bf5771b1db93beac965a7347dc81c675ec4090cb841e49d9d34637a25c30568
pytest-mypy==0.3.3 \
    --hash=sha256:419d1d4877d41a6a80f0eb31faa7c50bb9445557f7ff1b02a1a26d10d7dc7691 \
    --hash=sha256:917438af835beb87f14c9f6261137f8e992b3bf87ebf73f836ac7ede03424a0f
pytest-pylint==0.14.0 \
    --hash=sha256:0dcb6cd429281f7493994e65324937bb295ef28f7632c046b45828380f4fe88a \
    --hash=sha256:45d2209b65989c8981289c8e75d0fde8c55e87cef27e97facb49f14773a8d3fb \
    --hash=sha256:7bfbb66fc6dc160193a9e813a7c55e5ae32028f18660deeb90e1cb7e980cbbac
pytest-runner==5.1 \
    --hash=sha256:25a013c8d84f0ca60bb01bd11913a3bcab420f601f0f236de4423074af656e7a \
    --hash=sha256:d04243fbf29a3b574f18f1bcff2a07f505db5daede82f706f2e32728f77d3f4d
pytest==5.0.1 \
    --hash=sha256:6ef6d06de77ce2961156013e9dff62f1b2688aa04d0dc244299fe7d67e09370d \
    --hash=sha256:a736fed91c12681a7b34617c8fcefe39ea04599ca72c608751c31d89579a3f77
python-dateutil==2.8.0 \
    --hash=sha256:7e6584c74aeed623791615e26efd690f29817a27c73085b78e4bad02493df2fb \
    --hash=sha256:c89805f6f4d64db21ed966fda138f8a5ed7a4fdbc1a8ee329ce1b74e3c74da9e \
    # via pendulum
pytzdata==2019.2 \
    --hash=sha256:c0c8316eaf6c25ba45816390a1a45c39790767069b3275c5f7de3ddf773eb810 \
    --hash=sha256:e8a91952afd853642a49f0713caac3e15a5306855ff4a47af4ddec5b7dd23a09 \
    # via pendulum
ruamel.yaml==0.15.97 \
    --hash=sha256:17dbf6b7362e7aee8494f7a0f5cffd44902a6331fe89ef0853b855a7930ab845 \
    --hash=sha256:23731c9efb79f3f5609dedffeb6c5c47a68125fd3d4b157d9fc71b1cd49076a9 \
    --hash=sha256:2bbdd598ae57bac20968cf9028cc67d37d83bdb7942a94b9478110bc72193148 \
    --hash=sha256:34586084cdd60845a3e1bece2b58f0a889be25450db8cc0ea143ddf0f40557a2 \
    --hash=sha256:35957fedbb287b01313bb5c556ffdc70c0277c3500213b5e73dfd8716f748d77 \
    --hash=sha256:414cb87a40974a575830b406ffab4ab8c6cbd82eeb73abd2a9d1397c1f0223e1 \
    --hash=sha256:428775be75db68d908b17e4e8dda424c410222f170dc173246aa63e972d094b3 \
    --hash=sha256:514f670f7d36519bda504d507edfe63e3c20489f86c86d42bc4d9a6dbdf82c7b \
    --hash=sha256:5cb962c1ac6887c5da29138fbbe3b4b7705372eb54e599907fa63d4cd743246d \
    --hash=sha256:5f6e30282cf70fb7754e1a5f101e27b5240009766376e131b31ab49f14fe81be \
    --hash=sha256:86f8e010af6af0b4f42de2d0d9b19cb441e61d3416082186f9dd03c8552d13ad \
    --hash=sha256:8d47ed1e557d546bd2dfe54f504d7274274602ff7a0652cde84c258ad6c2d96d \
    --hash=sha256:98668876720bce1ac08562d8b93a564a80e3397e442c7ea19cebdcdf73da7f74 \
    --hash=sha256:9e1f0ddc18d8355dcf5586a5d90417df56074f237812b8682a93b62cca9d2043 \
    --hash=sha256:a7bc812a72a79d6b7dbb96fa5bee3950464b65ec055d3abc4db6572f2373a95c \
    --hash=sha256:b72e13f9f206ee103247b07afd5a39c8b1aa98e8eba80ddba184d030337220ba \
    --hash=sha256:bcff8ea9d916789e85e24beed8830c157fb8bc7c313e554733a8151540e66c01 \
    --hash=sha256:c76e78b3bab652069b8d6f7889b0e72f3455c2b854b2e0a8818393d149ad0a0d
six==1.12.0 \
    --hash=sha256:3350809f0555b11f552448330d0b52d5f24c91a322ea4a15ef22629740f3761c \
    --hash=sha256:d16a0141ec1a18405cd4ce8b4613101da75da0e9a7aec5bdd4fa804d0e0eba73 \
    # via astroid, mock, packaging, pytest-pylint, python-dateutil
typed-ast==1.4.0 \
    --hash=sha256:18511a0b3e7922276346bcb47e2ef9f38fb90fd31cb9223eed42c85d1312344e \
    --hash=sha256:262c247a82d005e43b5b7f69aff746370538e176131c32dda9cb0f324d27141e \
    --hash=sha256:2b907eb046d049bcd9892e3076c7a6456c93a25bebfe554e931620c90e6a25b0 \
    --hash=sha256:354c16e5babd09f5cb0ee000d54cfa38401d8b8891eefa878ac772f827181a3c \
    --hash=sha256:4e0b70c6fc4d010f8107726af5fd37921b666f5b31d9331f0bd24ad9a088e631 \
    --hash=sha256:630968c5cdee51a11c05a30453f8cd65e0cc1d2ad0d9192819df9978984529f4 \
    --hash=sha256:66480f95b8167c9c5c5c87f32cf437d585937970f3fc24386f313a4c97b44e34 \
    --hash=sha256:71211d26ffd12d63a83e079ff258ac9d56a1376a25bc80b1cdcdf601b855b90b \
    --hash=sha256:95bd11af7eafc16e829af2d3df510cecfd4387f6453355188342c3e79a2ec87a \
    --hash=sha256:bc6c7d3fa1325a0c6613512a093bc2a2a15aeec350451cbdf9e1d4bffe3e3233 \
    --hash=sha256:cc34a6f5b426748a507dd5d1de4c1978f2eb5626d51326e43280941206c209e1 \
    --hash=sha256:d755f03c1e4a51e9b24d899561fec4ccaf51f210d52abdf8c07ee2849b212a36 \
    --hash=sha256:d7c45933b1bdfaf9f36c579671fec15d25b06c8398f113dab64c18ed1adda01d \
    --hash=sha256:d896919306dd0aa22d0132f62a1b78d11aaf4c9fc5b3410d3c666b818191630a \
    --hash=sha256:ffde2fbfad571af120fcbfbbc61c72469e72f550d676c3342492a9dfdefb8f12 \
    # via astroid, mypy
ujson==1.35 \
    --hash=sha256:f66073e5506e91d204ab0c614a148d5aa938bdbf104751be66f8ad7a222f5f86
wcwidth==0.1.7 \
    --hash=sha256:3df37372226d6e63e1b1e1eda15c594bca98a22d33a23832a90998faa96bc65e \
    --hash=sha256:f4ebe71925af7b40a864553f761ed559b43544f8f71746c2d756c7fe788ade7c \
    # via pytest
wheel==0.33.4 \
    --hash=sha256:5e79117472686ac0c4aef5bad5172ea73a1c2d1646b808c35926bd26bdfb0c08 \
    --hash=sha256:62fcfa03d45b5b722539ccbc07b190e4bfff4bb9e3a4d470dd9f6a0981002565
wrapt==1.11.2 \
    --hash=sha256:565a021fd19419476b9362b05eeaa094178de64f8361e44468f9e9d7843901e1 \
    # via astroid
yarl==1.3.0 \
    --hash=sha256:024ecdc12bc02b321bc66b41327f930d1c2c543fa9a561b39861da9388ba7aa9 \
    --hash=sha256:2f3010703295fbe1aec51023740871e64bb9664c789cba5a6bdf404e93f7568f \
    --hash=sha256:3890ab952d508523ef4881457c4099056546593fa05e93da84c7250516e632eb \
    --hash=sha256:3e2724eb9af5dc41648e5bb304fcf4891adc33258c6e14e2a7414ea32541e320 \
    --hash=sha256:5badb97dd0abf26623a9982cd448ff12cb39b8e4c94032ccdedf22ce01a64842 \
    --hash=sha256:73f447d11b530d860ca1e6b582f947688286ad16ca42256413083d13f260b7a0 \
    --hash=sha256:7ab825726f2940c16d92aaec7d204cfc34ac26c0040da727cf8ba87255a33829 \
    --hash=sha256:b25de84a8c20540531526dfbb0e2d2b648c13fd5dd126728c496d7c3fea33310 \
    --hash=sha256:c6e341f5a6562af74ba55205dbd56d248daf1b5748ec48a0200ba227bb9e33f4 \
    --hash=sha256:c9bb7c249c4432cd47e75af3864bc02d26c9594f49c82e2a28624417f0ae63b8 \
    --hash=sha256:e060906c0c585565c718d1c3841747b61c5439af2211e185f6739a9412dfbde1
zipp==0.5.2 \
    --hash=sha256:4970c3758f4e89a7857a973b1e2a5d75bcdc47794442f2e2dd4fe8e0466e809a \
    --hash=sha256:8a5712cfd3bb4248015eb3b0b3c54a5f6ee3f2425963ef2a0125b8bc40aafaec \
    # via importlib-metadata
